…
### Number of Aisles and Most Commonly Used Aisles

To see how many aisles there are, and which aisles have the most items
ordered from them, we can create a table. Below is a table summarizing
the number of items ordered from aisle. In total, there are 134 aisles,
with fresh vegetables and fresh fruits holding the most items ordered by
far.

``` r
instacart |> 
  count(aisle) |> 
  arrange(desc(n))
```

    ## # A tibble: 134 × 2
    ##    aisle                              n
    ##    <chr>                          <int>
    ##  1 fresh vegetables              150609
    ##  2 fresh fruits                  150473
    ##  3 packaged vegetables fruits     78493
    ##  4 yogurt                         55240
    ##  5 packaged cheese                41699
    ##  6 water seltzer sparkling water  36617
    ##  7 milk                           32644
    ##  8 chips pretzels                 31269
    ##  9 soy lactosefree                26240
    ## 10 bread                          23635
    ## # ℹ 124 more rows
…
